<?xml version="1.0" standalone="no"?>
<!DOCTYPE svg PUBLIC "-//W3C//DTD SVG 20010904//EN"
 "http://www.w3.org/TR/2001/REC-SVG-20010904/DTD/svg10.dtd">
<svg version="1.0" xmlns="http://www.w3.org/2000/svg"
 width="2339.000000pt" height="2339.000000pt" viewBox="0 0 2339.000000 2339.000000"
 preserveAspectRatio="xMidYMid meet">
<metadata>
Created by potrace 1.14, written by Peter Selinger 2001-2017
</metadata>
<g transform="translate(0.000000,2339.000000) scale(0.100000,-0.100000)"
fill="#000000" stroke="none">
<path d="M11318 23385 c-2 -2 -77 -6 -168 -10 -91 -3 -183 -8 -205 -10 -22 -1
-83 -6 -135 -9 -52 -4 -111 -9 -130 -11 -19 -2 -73 -6 -120 -10 -47 -3 -111
-10 -144 -15 -32 -5 -61 -9 -65 -8 -3 1 -26 -2 -51 -5 -25 -4 -67 -9 -95 -12
-27 -3 -59 -8 -70 -10 -11 -2 -42 -7 -70 -10 -78 -9 -185 -24 -245 -35 -56
-10 -102 -17 -155 -26 -16 -2 -77 -14 -135 -25 -58 -12 -118 -23 -135 -26 -34
-5 -268 -56 -365 -79 -36 -9 -72 -17 -80 -19 -125 -26 -677 -177 -740 -202 -8
-3 -19 -7 -25 -8 -20 -5 -353 -118 -445 -151 -252 -92 -492 -187 -655 -259
-16 -7 -64 -28 -105 -45 -84 -36 -119 -52 -303 -139 -70 -33 -129 -59 -130
-58 -1 1 -18 -8 -37 -19 -19 -12 -111 -61 -205 -109 -709 -366 -1407 -827
-2040 -1346 -49 -41 -324 -276 -360 -308 -21 -20 -69 -63 -105 -97 -36 -33
-87 -80 -114 -105 -106 -96 -498 -493 -611 -619 -66 -74 -127 -141 -135 -149
-8 -9 -55 -63 -105 -121 -94 -110 -133 -155 -150 -174 -24 -27 -271 -341 -393
-501 -9 -12 -122 -169 -169 -235 -169 -238 -481 -728 -586 -920 -16 -30 -36
-65 -43 -77 -7 -12 -30 -52 -50 -90 -20 -37 -48 -88 -62 -113 -90 -161 -402
-801 -402 -824 0 -3 -14 -36 -31 -73 -89 -193 -272 -675 -366 -963 -99 -305
-232 -769 -249 -868 -3 -15 -7 -33 -9 -40 -5 -13 -68 -288 -79 -342 -24 -121
-76 -393 -81 -425 -3 -22 -12 -78 -20 -125 -8 -47 -24 -150 -35 -230 -24 -173
-27 -198 -45 -360 -2 -19 -6 -57 -9 -85 -6 -53 -11 -109 -21 -240 -4 -44 -8
-100 -10 -125 -15 -169 -20 -373 -19 -775 0 -419 4 -592 19 -805 3 -41 8 -111
11 -155 3 -44 7 -98 9 -120 2 -22 7 -71 10 -110 3 -38 7 -81 10 -95 2 -14 7
-52 10 -85 3 -33 8 -73 10 -90 2 -16 7 -57 10 -90 3 -33 8 -67 10 -75 2 -8 6
-35 9 -60 4 -25 15 -103 26 -175 12 -71 23 -146 26 -165 3 -19 11 -69 19 -110
8 -41 17 -91 20 -110 3 -19 10 -51 15 -70 4 -19 11 -54 14 -78 3 -24 8 -47 10
-51 3 -4 8 -22 11 -39 3 -17 19 -91 36 -164 16 -73 32 -144 35 -158 8 -42 92
-359 123 -465 16 -55 41 -140 56 -190 53 -181 232 -702 275 -800 5 -11 34 -85
66 -165 31 -80 61 -149 65 -155 5 -5 9 -15 9 -22 0 -6 14 -43 31 -80 17 -37
35 -77 40 -88 4 -11 31 -69 59 -128 27 -60 50 -111 50 -113 0 -8 222 -450 275
-549 193 -359 478 -830 640 -1057 22 -31 60 -87 85 -123 44 -65 388 -529 422
-570 9 -11 42 -51 73 -90 31 -38 66 -81 78 -95 48 -58 122 -145 127 -150 3 -3
20 -23 39 -45 28 -32 128 -146 176 -199 211 -234 484 -511 705 -716 177 -164
175 -163 206 -190 639 -561 1349 -1070 1989 -1425 28 -15 91 -50 140 -78 824
-460 1800 -847 2731 -1082 119 -30 225 -57 237 -59 12 -3 83 -18 157 -35 74
-16 146 -32 160 -35 163 -31 250 -48 330 -61 107 -18 142 -24 185 -31 17 -2
41 -6 55 -9 14 -2 45 -7 70 -10 25 -3 79 -10 120 -16 103 -15 117 -17 180 -24
30 -3 89 -9 130 -15 41 -5 111 -12 155 -16 44 -4 94 -8 110 -10 17 -1 73 -6
125 -9 52 -4 111 -9 130 -11 211 -22 1252 -22 1510 0 19 2 78 7 130 10 119 9
191 15 255 21 28 2 75 7 105 10 30 3 66 7 80 9 14 3 70 10 125 16 102 11 120
14 190 24 22 4 58 9 80 11 22 3 83 12 135 21 52 8 109 18 125 20 17 3 37 7 45
9 8 2 35 7 60 10 25 4 63 10 85 15 22 5 56 12 75 15 19 3 42 8 50 10 8 2 31 7
50 10 78 13 407 89 605 140 395 100 820 237 1270 407 68 25 140 55 350 143
250 104 727 331 894 425 36 20 107 58 156 85 437 234 1100 663 1455 941 170
133 462 368 505 406 28 25 111 98 185 163 352 307 803 764 1105 1120 28 32 68
79 90 104 37 42 160 192 177 216 4 6 20 26 36 45 34 41 228 295 257 336 11 15
34 46 50 68 70 94 155 217 155 225 0 5 4 11 9 13 25 10 426 646 555 881 40 74
56 102 116 209 39 68 270 532 323 648 57 124 151 340 179 410 17 41 35 86 41
100 6 14 11 27 12 30 0 3 24 64 52 135 114 292 323 918 349 1045 3 14 14 54
24 90 17 57 66 248 75 290 2 8 15 64 29 124 14 59 28 122 31 140 3 17 8 39 11
48 5 18 13 50 20 88 2 14 7 39 11 55 9 40 8 33 18 90 5 28 9 52 10 55 1 3 7
39 14 80 7 41 15 84 17 95 3 11 7 36 10 55 7 46 13 81 18 105 2 11 7 45 12 75
4 30 8 57 9 60 1 3 5 34 9 70 5 36 10 72 11 80 5 25 39 320 50 435 12 122 14
142 20 235 4 52 8 115 11 140 24 292 23 1196 -1 1440 -2 19 -6 80 -10 135 -7
110 -11 163 -19 245 -3 30 -8 82 -11 115 -6 66 -13 132 -20 185 -3 19 -7 60
-10 90 -7 71 -16 133 -20 140 -1 3 -6 36 -10 75 -4 38 -8 72 -10 75 -2 3 -6
30 -10 60 -3 30 -8 62 -10 70 -5 16 -10 51 -20 115 -3 23 -8 52 -10 65 -3 14
-8 39 -10 55 -9 50 -23 122 -61 300 -19 94 -37 180 -40 193 -9 44 -92 377
-119 477 -169 625 -368 1167 -687 1875 -32 70 -230 467 -273 545 -21 39 -51
95 -68 125 -186 342 -456 774 -703 1125 -71 101 -345 467 -359 480 -6 6 -24
28 -40 50 -16 22 -39 50 -50 61 -11 12 -29 34 -40 49 -19 27 -184 222 -249
295 -17 20 -49 56 -70 80 -213 245 -713 747 -961 965 -744 652 -1422 1127
-2245 1573 -745 403 -1605 749 -2415 971 -173 47 -258 69 -285 75 -14 2 -122
27 -240 55 -181 41 -497 105 -630 125 -19 3 -48 8 -65 11 -51 9 -99 17 -120
21 -11 1 -40 5 -64 8 -53 6 -126 16 -161 22 -14 2 -65 9 -113 14 -49 6 -103
12 -120 15 -99 13 -183 21 -302 30 -38 3 -90 7 -115 10 -25 2 -97 7 -160 11
-63 4 -137 8 -165 10 -59 5 -953 13 -957 9z"/>
</g>
</svg>
